first_name,last_name
Iorgo,Triplett
Andre,Garden
Porty,Butlin
Abelard,Gapp
Berk,Dauney
Penny,MacKenny
Emmott,Wilmott
Shani,Plimmer
Carlin,Sandbatch
Auria,Dalli
Lesley,Rowett
Arman,Theakston
Kimbell,Bousfield
Cirillo,Giuron
Carly,Pena
Eve,Sandells
Gus,Hamnet
Clemente,Shawel
Erskine,Lakenden
Vikki,Legon
Jaquelin,Biddlecombe
Quintin,Greendale
Pincas,Attersoll
Ode,Chesney
Felix,Spiteri
Myrtle,Jordine
Loren,Rainger
Sybilla,Cecchi
Horton,Spilsbury
Daven,England
Hilary,Lammerich
Michail,Midner
Kliment,Bullimore
Verile,Pablo
Lillis,Jiras
Becky,Beattie
Callida,Landrick
Dulci,Kellington
Mallory,Kincade
Tabbatha,Crips
Libbie,Tindley
Ali,Mushrow
Kort,Reams
Diannne,Washington
Sebastiano,Faux
Baryram,Pietrowicz
Faber,Ambrose
Henryetta,MacCartair
Tarrah,Bailes
Roanne,Draisey
Darla,Rawls
Lauryn,Neeves
Deane,Arnoult
Bethanne,Mandrey
Rodina,Simkovitz
Ynes,Firbank
Justine,Marris
Dasi,Warner
Blinny,Dadge
Lebbie,Hudd
Gabie,Biasetti
Letisha,Wenzel
Everard,Burnapp
Leesa,Joyson
Ailina,Dacre
Eleanora,Mearns
Georgia,Tethcote
Elinor,Petch
Ruthi,Shewsmith
Carolynn,Goldster
Packston,Ponting
Scarlet,Ethington
Celestyn,Mullany
Luigi,Siemantel
Isidora,Henriet
Martin,Croser
Brittany,Escott
Curcio,Feavearyear
Nial,Danovich
Ammamaria,McGrale
Ki,Flinders
Alden,Lakeman
Daphna,Sommerville
Nance,Yeardsley
Jeremy,Gotter
Elaina,Ottosen
Jeth,Norkutt
Calhoun,Bowry
Mac,Tillman
Maxine,Banasik
Ignaz,Coverdill
Vinny,Janoch
Deena,Venable
Alexandro,Blackater
Augustine,Maddyson
Giffie,Edgson
Nicholle,De Bruyne
Darlleen,Lenormand
Sebastiano,Belt
Morrie,Clinnick
Janelle,O'Currigan
Kevyn,Doncaster
Connie,Packham
Orion,Ateridge
Gratiana,Gurner
Thatcher,Balme
Noellyn,Kyteley
Darlene,Reinbeck
Stevy,McCauley
Ferrel,Ryott
Fedora,Gabitis
Osborn,Soaper
Lee,Killcross
Gabriellia,Hughill
Emelen,Cowlin
Zebedee,Tembey
Levon,Blaskett
Kenny,Jerrim
Atalanta,Shewen
Carmelita,Vodden
Kai,Klammt
Serena,Crichmer
Nadia,Kerins
Riobard,Matyushkin
Nial,Metzig
Earle,Grimes
Bobbye,Stirgess
Reggie,Saull
Gael,Ashenhurst
Gualterio,Kadd
Salvatore,Rooms
Vyky,Adney
Adriaens,Tibbs
Shell,Corringham
Constance,Eastway
Winston,Malloy
Burty,Nowakowska
Lee,Streeten
Ric,Muxworthy
Norris,Stamper
Gerhardine,Arghent
Nicholle,Braley
Stephani,Luttger
Cameron,Garie
Thom,Magnay
Hedvig,Revington
Theresa,MacWilliam
Ashlin,McKall
Dulcia,Loghan
Maisie,Pulhoster
Reyna,Knellen
Velvet,Pennoni
Nolan,Arnold
Hank,Lovick
Tarrah,Melmar
Dru,Eisak
Pascale,Scudamore
Sholom,Pallas
Adey,Burstowe
Patton,Biskup
Walliw,Ambroziak
Anabelle,Brounfield
Hesther,Lakenden
Harley,Reace
Juli,Rait
Cherye,Mousley
Rebeca,Badcock
Matthus,Haggith
Christabel,Annakin
Simone,Saylor
Kinny,Comar
Alphonso,Horche
Janos,Barthelme
Lillis,Rennison
Kelcy,Brunsdon
Diannne,Elce
Grover,Cleugher
Bryn,Nockalls
Benjamen,Maseres
Frankie,Moorhouse
Giacopo,Wyson
Sandra,Southcombe
Karin,Wilkison
Levy,Fontin
Colan,Tremathack
Cheri,Ahmed
Tuckie,Gulliman
Staford,Danilin
Thane,MacCaghan
Hy,Dory
Dacia,Dorrity
Dacy,Baumaier
Tomas,Packham
Jacquette,Pach
Jordana,Robertelli
Eveleen,Aubury
Allyson,Duplain
Tye,Winship
Rollie,Bartolomeotti
Rozele,Neame
Ketty,Schimek
Chickie,Eldredge
Lynnet,Binding
Magdalena,Lade
Graeme,Northidge
Jemmy,Mackiewicz
Ambur,De Matteis
Imogene,Buttrick
Norrie,Levay
Evey,Witts
Mathian,Presslee
Susanetta,Sokill
Sherilyn,Hawkings
Zelig,Hedderly
Florette,Drynan
Tristan,MacParland
Perry,Trumpeter
Luis,Temblett
Pattin,Smithyman
Phillis,Labbati
Tirrell,Gridon
Urbano,Iacobini
Fina,Hallstone
Levey,Wiskar
Cherice,Gerretsen
Carleen,Dalrymple
Merralee,Santhouse
Stan,Westley
Ashlie,Cardero
Richie,Wiffill
Milton,Axe
Teresina,Caldero
Reidar,Feldklein
Brenda,Rosenblad
Jeffie,Bansal
Constancia,Beadell
Merell,Ruddin
Jane,O'Canavan
Robin,Bonelle
Leighton,McDougald
Quillan,Dykes
Heriberto,Rothera
York,Rushbrook
Merci,Mushart
Luella,Tommen
Danella,DelaField
Ellie,Poston
Willdon,Spieght
Gustave,Stentiford
Adelaida,Renneke
Wolfy,Cestard
Shelley,Hare
Ricca,Lambkin
Jaime,Slyde
Austin,Mcall
Caryl,Matchell
Cindelyn,Ferrucci
Lu,Steketee
Alisa,Brackenbury
Ariela,Firidolfi
Merrill,Ryrie
Alexandr,Coase
Benedicto,Wight
Krystle,Paris
Loni,Shannon
Annemarie,Wauchope
Janek,Gooly
Edith,Tidcomb
Gennie,Ghidelli
Loise,Shovelin
Charyl,Orrom
Riley,Rouf
Ernestus,O'Doherty
Demetris,Gulleford
Calida,Doy
Corly,Ghilardini
Scot,McSporrin
Janean,Chaffin
Jerry,Mansford
Frannie,Radki
Natal,Egdal
Dela,Fowlston
Alasdair,Radcliffe
Farrell,Tomasek
Filia,Dayne
Bink,McGivena
Royce,Caro
Jocelin,Eaglestone
Rakel,Cantopher
Boote,Klaussen
Zonda,Von Brook
Andris,Shaxby
Grethel,Royan
Joell,Caslett
Irene,Yurenin
Wye,Bassindale
Obadias,Aitchinson
Gar,Addinall
Earle,Pettingill
Lorenza,Olivetti
Danyette,Gilardone
Maryann,Goff
Rollie,Morriss
Page,Wadge
Alyss,China
Lorin,Claybourne
Erin,Alban
Egan,Sheaber
Aeriell,Brimelow
Deana,Rutherforth
Tirrell,Slatten
Phaidra,Slyne
Ellene,Dyte
Lyndel,Fortin
Trumaine,Santacrole
Charlean,Adamoli
Stearne,MacTeague
Muhammad,Szantho
Meris,Salsbury
Odo,Mabb
Ari,Vasichev
Florance,Keaysell
Helen-elizabeth,Axworthy
Aigneis,Winspear
Robby,Sholl
Maurise,Quipp
Pavlov,Andriesse
Fielding,Ocheltree
Mariel,O'Riordan
Tandi,Winscom
Goldie,Frodsam
Henrietta,Pietzker
Frederica,Gorke
Maurice,Trevna
Bliss,Morin
Denys,Perell
Worthington,Rivenzon
Carlene,Aumerle
Emmy,Jakoubec
Gabriele,Skevington
Caddric,Lobbe
Trude,Pioch
Crosby,Helliwell
Donn,Ubach
Rhea,Laterza
Bobbette,Cason
Leigha,Reinard
Olympe,Jablonski
Consuelo,Sarsons
Nathanial,Boatswain
Vanda,Greenrod
Gustav,Jacobowitz
Betti,Guppie
Hazel,Mayne
Belva,Whitton
Rafaello,Lesurf
Mikol,Punyer
Tamas,McJarrow
Conrado,Wreford
Kimberlee,Balderson
Hakeem,Queyos
Win,Soigne
Georgeanna,Kembery
Letisha,Cheetam
Cole,Pounds
Stern,Lunney
Juanita,Camerati
Livvyy,Rentilll
Ysabel,Pedrol
Emelita,Andress
Vikky,Willimot
Kimberley,Bisatt
Vita,Abrahamsson
Gottfried,Reilinger
Arlena,Korba
Erwin,Rubin
Stevie,Delany
Griswold,Follen
Lindsay,Klementz
Dulci,Burg
Sheree,Bartunek
Tania,Esslemont
Nady,Hughesdon
Tasia,Speed
Lind,Smetoun
Mufi,Tunnick
Ettie,Laweles
Verile,Sudlow
Dicky,Thorley
Jerrylee,Fattori
Goldina,Bernhardi
Eduino,Vahey
Connor,Matschoss
Minnaminnie,Partner
Alexi,Shergill
Leticia,Lansly
Raddie,Rabbet
Georgetta,Yele
Hoebart,Sowte
Robbyn,Hawes
Thibaud,Catanheira
Isabeau,Atwood
Petr,Hammerberger
Bentlee,Swepstone
Levy,Snowball
Flore,Eddisford
Guthry,Hubbart
Pepita,Spinnace
Courtenay,Massot
Jerrylee,Hun
Gabriello,Yakuntzov
Ramon,Warlowe
Joshua,Fryatt
Greta,Mattschas
Marys,Goby
Saleem,McIlory
Daisey,Hubbucke
Humphrey,Vasichev
Dodie,Ollington
Traci,Tellenbrook
Barri,Wentworth
Antonius,Bowich
Jolene,Noel
Zechariah,Glynn
Morissa,Dinzey
Nancie,Seaward
Carolin,Tremayne
Annamarie,Very
Geri,Tallowin
Rafaela,Terrill
Waiter,Pratton
Dara,Empleton
Rikki,Gagin
Felicle,Chattell
Danyette,Dibbs
Hedwig,Eccleston
Modesta,Sawrey
Reinaldo,Leverson
Starlin,Physic
Gino,Strethill
Brockie,Bennedsen
Daisey,Jervoise
Kore,Runge
Retha,MacNair
Maggy,Lumsdaine
Minne,Doust
Petronia,Bunford
Eugenius,Delacroux
Matt,Awdry
Ky,Pickton
Laetitia,Warrick
Sigismondo,Caslett
Cordy,Womersley
Puff,Moorman
Chalmers,Gascoine
Dagny,Gorrick
Pacorro,Vernay
Bartholomeus,Fominov
Jeannine,Applegarth
Cully,Thieme
Annabella,De Courtney
Jacquetta,Mosson
Lydia,Le - Count
Lurleen,Sambles
Darnall,Hellwich
Jens,Haking
Rebeka,Birdis
Belita,Awin
Wilton,Boyne
Lauralee,Danzelman
Fay,Shekle
Jens,Ruzek
Coralie,Du Fray
Domeniga,Gors
Gwennie,Murcott
Coreen,Frayn
Patrizio,Spurnier
Earle,Mashal
Kerwin,Whimp
Bobbie,Bolter
Marnia,Fall
Maxi,Hovie
Cameron,Eggar
Liz,Alloisi
Logan,Corradini
Leila,McManus
Hubert,Linnitt
Elmore,Patchett
Dode,Tolwood
Gabriel,Micklem
Cathryn,Jeffrey
Ludovika,Van Dijk
Phebe,Cotherill
Dennison,Symes
Allin,Normansell
Robinet,Rosten
Magdalen,Silmon
Ewart,Dowry
Cilka,Barefoot
Meryl,McQuilkin
Luciano,Bolt
Frasier,Ferdinand
Lula,Redolfi
Fawn,Lagen
Tiena,Pinock
Morry,Forseith
Alvie,Benting
Jaclyn,Rosenstock
Spencer,Battle
Xever,Islep
Allyson,Bessent
Norri,Watkinson
Chrystel,Bartleman
Fern,Pordall
Joly,Slater
Wally,Billison
Jenn,Peatt
Rodolph,Matteuzzi
Quinn,Sirkett
Melonie,Offen
Juline,Everit
Tanner,Hindenburg
Lura,Worms
Tamera,Gawler
Freddi,Boothebie
Leeland,Kall
Ermin,Dowyer
Dallis,Flaherty
Arne,Farnall
Emmett,Gitsham
Lorens,Mariault
Morissa,Rubinovitch
Franciskus,Noyce
Husain,Becom
Abbot,Prisley
Ricardo,Dredge
Dell,Gilsthorpe
Henrieta,Allaker
Sallyanne,Lote
Cristy,Mathe
Kasper,Dobey
Sheree,Axup
Nerte,Grinstead
Sophronia,Devil
Giusto,Laverock
Kristos,Wicklin
Erik,Janecki
Nate,Cockran
Eldin,Dunkley
Pail,Bulbrook
Ivor,Pfeffle
Sammy,Dall
Leicester,Gronauer
Rochester,Yeudall
Jae,Venny
Veda,Marfield
Adelheid,Cranham
Heddi,Binks
Jake,Trevaskiss
Meghann,Gaunt
Jesse,Damper
Ennis,Daymont
Annaliese,Skydall
Jennette,Ewbanck
Raina,Bertouloume
Constanta,Ossulton
Elora,Liepins
Ringo,Feldbaum
Luella,Dran
Gallard,Crosson
Hanny,Hobbing
Zandra,Slowgrave
Lian,Colleer
Vita,Gorgl
Pollyanna,Braiden
Lombard,Aindriu
Paquito,Redd
Genna,Torbet
Stirling,Croysdale
Sandie,Wickerson
Hercules,Whiston
Andrus,Theyer
Timmie,Linkie
Jilleen,Brouard
Ilse,Brougham
Vale,Partridge
Hazel,Boldra
Caleb,Noto
Loni,Royle
Frasco,Eskriet
Celine,Catherine
Buddie,Anwell
Ysabel,Freund
Cole,Nerval
Leonie,Harrower
Shaun,Rames
Esmeralda,Highman
Agna,Markie
Cobb,Jelf
Locke,Disdel
Duky,Moncreif
Aeriel,Cansdall
Carlie,Knappitt
Toddy,Enderlein
Jilleen,Sunner
Esme,Thonason
Elane,Foucar
Jedediah,Trelevan
Nathan,Spearman
Hakeem,Gokes
Wendeline,Goldston
Hattie,Sueter
Ave,Drysdell
Jon,Southern
Yancey,Caltera
Calypso,Collie
Edmon,Barrott
Kiersten,Addess
Vincent,Labeuil
Yolanda,Lammerich
Darlene,Soff
Madelle,Speers
Anjela,Heibel
Miguel,Pady
Eryn,Le Lievre
Consolata,VanBrugh
Hailey,Corkell
Deane,Pitblado
Dex,Carik
Conney,Prate
Mahala,Leatherland
Alethea,Rosso
Monika,Ponceford
Emelyne,Heijnen
Hinda,Drains
Willie,Keiley
Titos,Noli
Pedro,Stormes
Fredia,Wyldes
Barnard,Wilbore
Dorri,Grigoriev
Cedric,Bolton
Nata,Maplethorpe
Beatrix,Towey
Franz,Weekes
Sal,Duffield
Johnathon,Baudic
Melitta,McErlaine
Norri,Relf
Immanuel,Glenny
Nancy,Darrigone
Hollyanne,Dutchburn
Maribel,Camilio
Rik,Axup
Lib,Jovey
Jennica,Elcocks
Shir,Byng
Isabelita,Agirre
Bjorn,Reihm
Sharyl,Dann
Florrie,Hablot
Shayla,Oglesbee
Giacomo,De Mico
Nikolai,Brennenstuhl
Cathrin,Pyford
Aland,Leil
Edie,Goodoune
Leta,Eddicott
Donaugh,Veck
Tremaine,Eary
Carolyne,Yarham
Vail,Giacobelli
Rudolfo,Crackel
Martino,Fulker
Gina,Baumann
Emmy,Valintine
George,Odo
Rebbecca,Meiklam
Lonna,Huguenet
Arlena,O'Donohue
Andee,Pentin
Zollie,Echallier
Gustaf,Vasyunkin
Maurene,Fisbey
Bordy,Waddilove
Barbaraanne,Curnick
Rosemaria,Rolley
Kristan,Henri
Kanya,Birtonshaw
Codee,Nulty
Modesta,Verrico
Cora,Cossentine
Jerrie,Sercombe
Rivi,O'Hartagan
Emelina,Durtnall
Lorettalorna,Jeffers
Free,Townley
Chico,Satford
Dian,Blitzer
Brunhilde,Caird
Carlo,Yakubovich
Clarey,Mitkcov
Doralyn,Gill
Tabina,Mackro
Barclay,Guiot
Shelbi,Mcwhinnie
Etti,Garment
Cris,Whoston
Cinnamon,Vowells
Michaela,Sidon
Vicki,Custy
Pauline,Huortic
Angel,Tibols
Cross,Handscombe
Bunny,Chadburn
Devondra,Wellesley
Colin,Charlo
Darda,Broyd
Keane,Serjeant
Shelley,Newdick
Ave,Bloys
Darren,Fozzard
Bettina,Coverly
Rayner,Pickle
Bevon,Championnet
Fred,Checketts
Florella,Figure
Juieta,Tyler
Bobbee,Burchatt
Jobye,Darnody
Jareb,Rist
Darcee,Knath
Neal,Suggate
Bertina,Labroue
Sidonnie,Stanbra
Gar,Ortelt
Hortense,Kemet
Kendal,Riepl
Janela,Erie
Addie,Raun
Murray,Stanistreet
Rasia,Gadie
Irena,Brigstock
Ashleigh,Storcke
Alphard,Jeannel
Normie,Ather
Tadeas,Cratchley
Philis,Olivetta
Creight,Rutledge
Kaiser,Cranidge
Aloisia,Leggs
Haywood,Dockreay
Elias,Dwelling
Annis,Rawdall
Randolf,Bogart
Olly,Reddihough
Bartholomeus,Varker
Alica,Kyttor
Neila,Corro
Cherise,Shireff
Gerrilee,Scrammage
Laurens,Ledgard
Aguste,Samarth
Joya,Shubotham
Anselm,Biermatowicz
Aleksandr,Fronzek
Warren,Caron
Muriel,Joinson
Jedediah,Creese
Reed,Impey
Morley,Nassau
Alexis,Nowland
Andrej,Sculpher
Merci,McCreary
Raviv,Goldingay
Gabriella,Eustis
Mikaela,Westley
Elisabetta,Pierucci
Roarke,Imason
Bidget,Wreford
Dewey,Peagrim
Adeline,Dominy
Norene,Borlease
Jessey,Lodford
Selinda,Leblanc
Elissa,Seiffert
Valaree,Batistelli
Elfreda,McTeer
Kirsteni,McMeyler
Giselbert,Lamburn
Pietro,Covey
Jeannette,Coger
Hermione,Rigglesford
Kalvin,Handrik
Lidia,Stubbington
Wendi,Braidman
Nicola,Reynard
Virginie,Jobes
Julieta,Bradmore
Marley,D'Alwis
Cris,Eirwin
Gregor,Boneham
Marcelle,Ibotson
Tiffi,Houseman
Blondie,Eyer
Marlow,Nowell
Teirtza,Blackly
Finlay,Dowty
Dot,Mercey
Charlena,Kuhlen
Kat,Pinnigar
Abel,Benwell
Sherrie,Kneeland
Ahmed,Lettice
Auberta,Skinner
Nealson,Bayldon
Alon,Giacomuzzi
Anallese,Adams
Elbert,Van Velden
Ashley,Donaher
Alphonso,Dana
Neely,Sage
Jeni,Hancox
Farand,Earnshaw
Bertie,Laden
Felicdad,Bach
Marika,Prine
Judd,Blowfield
Arturo,Jeffress
Carny,Eastcourt
Sibyl,Boyington
Vaughn,Jacklings
Barret,Dorbin
Kirstin,Death
Katinka,Kneath
Bourke,O'Crotty
Rhona,Yanukhin
Valida,Dullingham
Liane,Ranklin
Lynne,Gavrieli
Daryl,Borham
Linda,McMychem
Paulie,Eborall
Jessie,Verdun
Modestine,Sissot
Liesa,Otridge
Dynah,Bensley
Boot,Leupoldt
Ermentrude,Souch
Wallis,Hanfrey
Carson,Blainey
Leela,O'Kinneally
Che,Mealing
Amalle,Laetham
Alejandra,Aurelius
Monah,Rathborne
Perla,Maffei
Laryssa,Tocqueville
Russell,Eshmade
Skippy,Shillan
Ebba,Deal
Elicia,Kolczynski
Maxim,Titley
Jessey,Thombleson
Garrard,Reeder
Carmelina,Minkin
Berti,Mattersley
Karine,O'Deoran
Flori,Henderson
Ingemar,Goldhill
Torr,Claughton
Thaddeus,Sapwell
Brear,Pillington
Gran,O'Gready
Ferdinand,Bungey
Eran,Hatchell
Hobard,Skelhorne
Cynde,Dyte
Lynda,Gier
Effie,Keyden
Fidela,Gokes
Rudie,Swiers
Kippy,Stanlock
Afton,McAteer
Angelle,Sherville
Vinson,Jamme
Natalee,Burberry
Madison,Derrick
Sydelle,Lathwood
Starlin,Guarnier
Vick,Bredes
Antonietta,McCoid
Malissia,Sarfas
Benjy,Witherspoon
Wesley,Bertl
Farra,Pallent
Elga,Bockler
Ashla,Bumfrey
Putnam,Cescotti
Reese,Ludgate
Peyter,Demer
Krystal,Jore
Veronike,Lipmann
Demetria,Parfrey
Christos,Betham
Masha,Cranke
Bathsheba,Cawker
Monah,Lampe
Kinnie,Edelheit
Lewiss,Abramin
Ernaline,Prevett
Abdel,De Ferraris
Pauline,Graffin
Aigneis,Klausen
Janaye,Simmgen
Moreen,Stooders
Ashlin,Dressell
Caprice,Clewley
Eric,Farey
Hewet,Deaville
Gayle,Lantoph
Glendon,Podd
Bunny,Jeffers
Gale,Follos
Arliene,Lackeye
Fey,Vallerine
Ado,Dorrity
Dollie,Buttler
Freedman,Belcham
Koren,Birley
Starlin,Harradence
Janette,Plackstone
Annabella,Kennagh
Feodor,Garfoot
Lilli,Clissett
Emalia,Pain
Felike,Caton
Gregory,Eingerfield
Alonso,Espada
Kaiser,Lines
Tessy,Harniman
Thain,Tyrie
Amabel,McCard
Durant,Amys
Russ,Maffy
Weidar,Rushbury
Adele,Schild
Eveleen,Breslin
Torin,Blanch
Codi,Edel
Chariot,Marston
Rosalia,Jerisch
Yves,Coope
Ruby,Pitford
Del,Tindall
Joete,Romer
Gertrudis,Shernock
Trudie,Pawsey
Flore,Bonniface
Maye,Micklewright
Tann,Gerler
Lambert,Onge
Ferdinande,Salter
Wernher,Padley
Tedman,Ondrich
Fan,Fozzard
Leonore,McIlheran
Jobi,Ekins
Elana,Hugonet
Rad,Dawby
Ricki,Fadden
Moselle,Paddock
Franzen,Agutter
Ham,Spridgeon
Malvina,Jellings
Stacy,Steadman
Gale,Behrend
Anabella,Harpham
Torey,Leemans
Sonny,Plenderleith
Thorstein,Brinicombe
Mata,Croker
Moe,Vigar
Gilbertina,Craxford
Olympia,McRill
Candida,Emblow
Sheila,Shergold
Tessi,Margrett
Luciano,Alexsandrev
Sayre,Gelletly
Rona,McCaskill
Reese,Rittelmeyer
Rickert,Curston
Lombard,Beddows
Saundra,Pelosi
Hanna,Tardiff
Teodora,Bedward
Dusty,Mayall
Lamond,Wackley
Durante,Pawlaczyk
